Visual Analytics Assignment: Visual Analytics Assignment Part 1
…
2.6.1.2 Splitting the timestamp data into individual date, time and day columns.

To allow us to dive deeper into our analysis later, we will split the timestamp dataset into date, time and day columns. We will first add more columns by using the mutate function from dplyr to add day, date and time columns in the cc dataset and importing in to the cc_dtsplit object.

There is no need to add columns for the loyatly dataset as we will join both the datasets together in which day will be included in the joined dataset.

cc_dtsplit <- cc %>%
  mutate(day = date_weekday_factor(cc$timestamp), date =  as_date(cc$timestamp), time = format(cc$timestamp, format = "%H:%M"))

cc_dtsplit

# A tibble: 1,490 x 7
   timestamp           location      price last4ccnum day   date      
   <dttm>              <chr>         <dbl> <fct>      <ord> <date>    
 1 2014-01-06 07:28:00 Brew've Been~ 11.3  4795       Mon   2014-01-06
 2 2014-01-06 07:34:00 Hallowed Gro~ 52.2  7108       Mon   2014-01-06
 3 2014-01-06 07:35:00 Brew've Been~  8.33 6816       Mon   2014-01-06
 4 2014-01-06 07:36:00 Hallowed Gro~ 16.7  9617       Mon   2014-01-06
 5 2014-01-06 07:37:00 Brew've Been~  4.24 7384       Mon   2014-01-06
 6 2014-01-06 07:38:00 Brew've Been~  4.17 5368       Mon   2014-01-06
 7 2014-01-06 07:42:00 Coffee Camel~ 28.7  7253       Mon   2014-01-06
 8 2014-01-06 07:43:00 Brew've Been~  9.6  4948       Mon   2014-01-06
 9 2014-01-06 07:43:00 Brew've Been~ 16.9  9683       Mon   2014-01-06
10 2014-01-06 07:47:00 Hallowed Gro~ 16.5  8129       Mon   2014-01-06
# ... with 1,480 more rows, and 1 more variable: time <chr>
…
